{
    "prepare_queue": {
        "installed": [],
        "uninstalled": []
    },
    "config_munge": {
        "config.xml": {
            "/*": {
                "<feature name=\"StatusBar\"><param name=\"ios-package\" onload=\"true\" value=\"CDVStatusBar\" /></feature>": 1,
                "<preference name=\"StatusBarOverlaysWebView\" value=\"true\" />": 1,
                "<preference name=\"StatusBarBackgroundColor\" value=\"#000000\" />": 1
            }
        }
    },
    "installed_plugins": {
        "org.apache.cordova.statusbar": {
            "PACKAGE_NAME": "com.ionicframework.starter"
        }
    },
    "dependent_plugins": {}
}